<?xml version="1.0" encoding="UTF-8"?>
<kml xmlns="http://www.opengis.net/kml/2.2" xmlns:gx="http://www.google.com/kml/ext/2.2">
    <Document id="feat_1">
        <Placemark id="feat_2">
            <description>164</description>
            <Polygon id="geom_0">
                <outerBoundaryIs>
                    <LinearRing id="geom_1">
                        <coordinates>-91.73929005639657,41.38936624491597,0.0 -91.73929045495494,41.38934561701093,0.0 -91.73928360948544,41.389345542000235,0.0 -91.73928345184746,41.3893663567619,0.0 -91.73929005639657,41.38936624491597,0.0</coordinates>
                    </LinearRing>
                </outerBoundaryIs>
            </Polygon>
        </Placemark>
    </Document>
</kml>
