<?xml version="1.0" encoding="UTF-8"?>
<kml xmlns="http://www.opengis.net/kml/2.2" xmlns:gx="http://www.google.com/kml/ext/2.2">
    <Document id="feat_3771">
        <Placemark id="feat_3772">
            <description>30</description>
            <Polygon id="geom_3758">
                <outerBoundaryIs>
                    <LinearRing id="geom_3759">
                        <coordinates>-91.73941663332911,41.3893688722293,0.0 -91.73941709043918,41.38934521152992,0.0 -91.73940993320687,41.38934532551503,0.0 -91.7394097352934,41.38936879665016,0.0 -91.73941663332911,41.3893688722293,0.0</coordinates>
                    </LinearRing>
                </outerBoundaryIs>
            </Polygon>
        </Placemark>
        <Placemark id="feat_3774">
            <description>33</description>
            <Polygon id="geom_3760">
                <outerBoundaryIs>
                    <LinearRing id="geom_3761">
                        <coordinates>-91.73938780283812,41.38934008053101,0.0 -91.73938800075915,41.3893166093959,0.0 -91.73938238014202,41.3893165478116,0.0 -91.73938218221898,41.38934001894667,0.0 -91.73938780283812,41.38934008053101,0.0</coordinates>
                    </LinearRing>
                </outerBoundaryIs>
            </Polygon>
        </Placemark>
        <Placemark id="feat_3776">
            <description>53</description>
            <Polygon id="geom_3762">
                <outerBoundaryIs>
                    <LinearRing id="geom_3763">
                        <coordinates>-91.7393207919011,41.38939610550101,0.0 -91.73932123046322,41.38937340661963,0.0 -91.73931407694445,41.38937332823532,0.0 -91.73931389386276,41.3893960299161,0.0 -91.7393207919011,41.38939610550101,0.0</coordinates>
                    </LinearRing>
                </outerBoundaryIs>
            </Polygon>
        </Placemark>
        <Placemark id="feat_3778">
            <description>69</description>
            <Polygon id="geom_3764">
                <outerBoundaryIs>
                    <LinearRing id="geom_3765">
                        <coordinates>-91.73941775200787,41.38925805970769,0.0 -91.73941822026471,41.389233821917614,0.0 -91.73941132224324,41.389233746338775,0.0 -91.73941110946622,41.38925798692802,0.0 -91.73941775200787,41.38925805970769,0.0</coordinates>
                    </LinearRing>
                </outerBoundaryIs>
            </Polygon>
        </Placemark>
        <Placemark id="feat_3780">
            <description>81</description>
            <Polygon id="geom_3766">
                <outerBoundaryIs>
                    <LinearRing id="geom_3767">
                        <coordinates>-91.73943734973415,41.38936794478376,0.0 -91.73943755135396,41.38934428128502,0.0 -91.73943065332078,41.38934420570718,0.0 -91.73943045169847,41.38936786920586,0.0 -91.73943734973415,41.38936794478376,0.0</coordinates>
                    </LinearRing>
                </outerBoundaryIs>
            </Polygon>
        </Placemark>
        <Placemark id="feat_3782">
            <description>115</description>
            <Polygon id="geom_3768">
                <outerBoundaryIs>
                    <LinearRing id="geom_3769">
                        <coordinates>-91.73941720942383,41.3892861447659,0.0 -91.73941770741196,41.38926036806865,0.0 -91.73941080938769,41.38926029248974,0.0 -91.73941056316298,41.38928626434956,0.0 -91.73941720942383,41.3892861447659,0.0</coordinates>
                    </LinearRing>
                </outerBoundaryIs>
            </Polygon>
        </Placemark>
        <Placemark id="feat_3784">
            <description>128</description>
            <Polygon id="geom_3770">
                <outerBoundaryIs>
                    <LinearRing id="geom_3771">
                        <coordinates>-91.73940749176396,41.38931297487136,0.0 -91.73940770082665,41.389288926645776,0.0 -91.73940131376439,41.38928885666472,0.0 -91.73940084921675,41.38931290209101,0.0 -91.73940749176396,41.38931297487136,0.0</coordinates>
                    </LinearRing>
                </outerBoundaryIs>
            </Polygon>
        </Placemark>
        <Placemark id="feat_3786">
            <description>131</description>
            <Polygon id="geom_3772">
                <outerBoundaryIs>
                    <LinearRing id="geom_3773">
                        <coordinates>-91.73930979498634,41.38939656221503,0.0 -91.73930998178614,41.3893736681709,0.0 -91.73930410568144,41.38937360378326,0.0 -91.73930391887959,41.38939649782735,0.0 -91.73930979498634,41.38939656221503,0.0</coordinates>
                    </LinearRing>
                </outerBoundaryIs>
            </Polygon>
        </Placemark>
        <Placemark id="feat_3788">
            <description>136</description>
            <Polygon id="geom_3774">
                <outerBoundaryIs>
                    <LinearRing id="geom_3775">
                        <coordinates>-91.73942694565696,41.389258352842326,0.0 -91.73942744735704,41.38923238378143,0.0 -91.73942054933572,41.389232308203155,0.0 -91.73942004763289,41.389258277263984,0.0 -91.73942694565696,41.389258352842326,0.0</coordinates>
                    </LinearRing>
                </outerBoundaryIs>
            </Polygon>
        </Placemark>
        <Placemark id="feat_3790">
            <description>138</description>
            <Polygon id="geom_3776">
                <outerBoundaryIs>
                    <LinearRing id="geom_3777">
                        <coordinates>-91.73932924141991,41.389395236065006,0.0 -91.73932966139608,41.38937349900056,0.0 -91.73932378529135,41.38937343461393,0.0 -91.73932336531323,41.38939517167832,0.0 -91.73932924141991,41.389395236065006,0.0</coordinates>
                    </LinearRing>
                </outerBoundaryIs>
            </Polygon>
        </Placemark>
        <Placemark id="feat_3792">
            <description>141</description>
            <Polygon id="geom_3778">
                <outerBoundaryIs>
                    <LinearRing id="geom_3779">
                        <coordinates>-91.73939804444412,41.389339038321374,0.0 -91.73939824607783,41.38931537482279,0.0 -91.73939211449559,41.38931530764045,0.0 -91.73939165737696,41.38933896833973,0.0 -91.73939804444412,41.389339038321374,0.0</coordinates>
                    </LinearRing>
                </outerBoundaryIs>
            </Polygon>
        </Placemark>
        <Placemark id="feat_3794">
            <description>148</description>
            <Polygon id="geom_3780">
                <outerBoundaryIs>
                    <LinearRing id="geom_3781">
                        <coordinates>-91.73938787543632,41.389256962742486,0.0 -91.73938810680403,41.389231760336344,0.0 -91.7393817197474,41.38923169035429,0.0 -91.73938148837723,41.38925689276038,0.0 -91.73938787543632,41.389256962742486,0.0</coordinates>
                    </LinearRing>
                </outerBoundaryIs>
            </Polygon>
        </Placemark>
        <Placemark id="feat_3796">
            <description>151</description>
            <Polygon id="geom_3782">
                <outerBoundaryIs>
                    <LinearRing id="geom_3783">
                        <coordinates>-91.73940801941801,41.389338570401804,0.0 -91.73940818016811,41.38931702290068,0.0 -91.7394015376205,41.38931695012037,0.0 -91.73940137686819,41.389338497621466,0.0 -91.73940801941801,41.389338570401804,0.0</coordinates>
                    </LinearRing>
                </outerBoundaryIs>
            </Polygon>
        </Placemark>
        <Placemark id="feat_3798">
            <description>154</description>
            <Polygon id="geom_3784">
                <outerBoundaryIs>
                    <LinearRing id="geom_3785">
                        <coordinates>-91.739408267537,41.38928604679309,0.0 -91.73940851747899,41.38925988256985,0.0 -91.73940213041955,41.38925981258889,0.0 -91.73940188047503,41.38928597681206,0.0 -91.739408267537,41.38928604679309,0.0</coordinates>
                    </LinearRing>
                </outerBoundaryIs>
            </Polygon>
        </Placemark>
        <Placemark id="feat_3800">
            <description>158</description>
            <Polygon id="geom_3786">
                <outerBoundaryIs>
                    <LinearRing id="geom_3787">
                        <coordinates>-91.73925972777168,41.38939562878353,0.0 -91.7392602109567,41.38937062154193,0.0 -91.7392533129212,41.38937054595341,0.0 -91.73925308521645,41.38939555599455,0.0 -91.73925972777168,41.38939562878353,0.0</coordinates>
                    </LinearRing>
                </outerBoundaryIs>
            </Polygon>
        </Placemark>
        <Placemark id="feat_3802">
            <description>201</description>
            <Polygon id="geom_3788">
                <outerBoundaryIs>
                    <LinearRing id="geom_3789">
                        <coordinates>-91.73944740282815,41.38925761495869,0.0 -91.73944762302416,41.38923298964236,0.0 -91.73944149144954,41.38923292246275,0.0 -91.73944126753496,41.38925774014244,0.0 -91.73944740282815,41.38925761495869,0.0</coordinates>
                    </LinearRing>
                </outerBoundaryIs>
            </Polygon>
        </Placemark>
        <Placemark id="feat_3804">
            <description>204</description>
            <Polygon id="geom_3790">
                <outerBoundaryIs>
                    <LinearRing id="geom_3791">
                        <coordinates>-91.73937807219721,41.38934112833833,0.0 -91.73937827383821,41.389317464839884,0.0 -91.73937265322103,41.389317403255106,0.0 -91.73937245157799,41.38934106675351,0.0 -91.73937807219721,41.38934112833833,0.0</coordinates>
                    </LinearRing>
                </outerBoundaryIs>
            </Polygon>
        </Placemark>
        <Placemark id="feat_3806">
            <description>208</description>
            <Polygon id="geom_3792">
                <outerBoundaryIs>
                    <LinearRing id="geom_3793">
                        <coordinates>-91.73937887399819,41.389312853716696,0.0 -91.73937907563854,41.389289190218136,0.0 -91.73937243309382,41.389289117436185,0.0 -91.73937223145106,41.3893127809347,0.0 -91.73937887399819,41.389312853716696,0.0</coordinates>
                    </LinearRing>
                </outerBoundaryIs>
            </Polygon>
        </Placemark>
        <Placemark id="feat_3808">
            <description>212</description>
            <Polygon id="geom_3794">
                <outerBoundaryIs>
                    <LinearRing id="geom_3795">
                        <coordinates>-91.73939912409314,41.389256701183314,0.0 -91.73939932944185,41.38923284532096,0.0 -91.73939089852693,41.389232752945404,0.0 -91.73939069317515,41.38925660880767,0.0 -91.73939912409314,41.389256701183314,0.0</coordinates>
                    </LinearRing>
                </outerBoundaryIs>
            </Polygon>
        </Placemark>
        <Placemark id="feat_3810">
            <description>235</description>
            <Polygon id="geom_3796">
                <outerBoundaryIs>
                    <LinearRing id="geom_3797">
                        <coordinates>-91.73933175697806,41.38911954851008,0.0 -91.73933196978284,41.389095307920826,0.0 -91.73932532725797,41.38909523513643,0.0 -91.73932511445074,41.389119475725636,0.0 -91.73933175697806,41.38911954851008,0.0</coordinates>
                    </LinearRing>
                </outerBoundaryIs>
            </Polygon>
        </Placemark>
        <Placemark id="feat_3812">
            <description>246</description>
            <Polygon id="geom_3798">
                <outerBoundaryIs>
                    <LinearRing id="geom_3799">
                        <coordinates>-91.73936037827065,41.38917238844759,0.0 -91.73936028726925,41.38915064578339,0.0 -91.73935389650413,41.38915076816331,0.0 -91.73935373573786,41.38917231566473,0.0 -91.73936037827065,41.38917238844759,0.0</coordinates>
                    </LinearRing>
                </outerBoundaryIs>
            </Polygon>
        </Placemark>
        <Placemark id="feat_3814">
            <description>249</description>
            <Polygon id="geom_3800">
                <outerBoundaryIs>
                    <LinearRing id="geom_3801">
                        <coordinates>-91.73938000207353,41.38917510471897,0.0 -91.73938047405944,41.38915067456548,0.0 -91.73937357233044,41.389150791347916,0.0 -91.73937335582397,41.389175224300644,0.0 -91.73938000207353,41.38917510471897,0.0</coordinates>
                    </LinearRing>
                </outerBoundaryIs>
            </Polygon>
        </Placemark>
        <Placemark id="feat_3816">
            <description>254</description>
            <Polygon id="geom_3802">
                <outerBoundaryIs>
                    <LinearRing id="geom_3803">
                        <coordinates>-91.73935037358983,41.38917439527067,0.0 -91.7393505306407,41.38915304013269,0.0 -91.7393441435919,41.38915297014865,0.0 -91.73934373105688,41.389174322487236,0.0 -91.73935037358983,41.38917439527067,0.0</coordinates>
                    </LinearRing>
                </outerBoundaryIs>
            </Polygon>
        </Placemark>
        <Placemark id="feat_3818">
            <description>256</description>
            <Polygon id="geom_3804">
                <outerBoundaryIs>
                    <LinearRing id="geom_3805">
                        <coordinates>-91.739262521406,41.38911878985342,0.0 -91.73926274167,41.389094164537845,0.0 -91.73925584366373,41.38909408894989,0.0 -91.7392553679153,41.38911871146586,0.0 -91.739262521406,41.38911878985342,0.0</coordinates>
                    </LinearRing>
                </outerBoundaryIs>
            </Polygon>
        </Placemark>
        <Placemark id="feat_3820">
            <description>259</description>
            <Polygon id="geom_3806">
                <outerBoundaryIs>
                    <LinearRing id="geom_3807">
                        <coordinates>-91.73935114566687,41.38914765955587,0.0 -91.7393515990806,41.3891241912196,0.0 -91.73934444558908,41.389124112837564,0.0 -91.73934424393818,41.38914777633655,0.0 -91.73935114566687,41.38914765955587,0.0</coordinates>
                    </LinearRing>
                </outerBoundaryIs>
            </Polygon>
        </Placemark>
        <Placemark id="feat_3822">
            <description>270</description>
            <Polygon id="geom_3808">
                <outerBoundaryIs>
                    <LinearRing id="geom_3809">
                        <coordinates>-91.739303111196,41.38920023676579,0.0 -91.73930328684588,41.38917791981114,0.0 -91.7392956223845,41.389177835827056,0.0 -91.739295446732,41.38920015278167,0.0 -91.739303111196,41.38920023676579,0.0</coordinates>
                    </LinearRing>
                </outerBoundaryIs>
            </Polygon>
        </Placemark>
        <Placemark id="feat_3824">
            <description>294</description>
            <Polygon id="geom_3810">
                <outerBoundaryIs>
                    <LinearRing id="geom_3811">
                        <coordinates>-91.73941725408046,41.389230925269565,0.0 -91.7394174891528,41.38920553049968,0.0 -91.73941135386448,41.38920565568193,0.0 -91.73941112250611,41.389230858088354,0.0 -91.73941725408046,41.389230925269565,0.0</coordinates>
                    </LinearRing>
                </outerBoundaryIs>
            </Polygon>
        </Placemark>
        <Placemark id="feat_3826">
            <description>8117</description>
            <Polygon id="geom_3812">
                <outerBoundaryIs>
                    <LinearRing id="geom_3813">
                        <coordinates>-91.73917372002558,41.38923133517876,0.0 -91.73917396262677,41.38920555568392,0.0 -91.73916732009108,41.38920548289025,0.0 -91.73916707748728,41.389231262385046,0.0 -91.73917372002558,41.38923133517876,0.0</coordinates>
                    </LinearRing>
                </outerBoundaryIs>
            </Polygon>
        </Placemark>
        <Placemark id="feat_3828">
            <description>304</description>
            <Polygon id="geom_3814">
                <outerBoundaryIs>
                    <LinearRing id="geom_3815">
                        <coordinates>-91.7393802854731,41.38914720922475,0.0 -91.73938053542437,41.38912104500111,0.0 -91.7393736336985,41.38912116178359,0.0 -91.7393733874609,41.38914713364377,0.0 -91.7393802854731,41.38914720922475,0.0</coordinates>
                    </LinearRing>
                </outerBoundaryIs>
            </Polygon>
        </Placemark>
        <Placemark id="feat_3830">
            <description>8119</description>
            <Polygon id="geom_3816">
                <outerBoundaryIs>
                    <LinearRing id="geom_3817">
                        <coordinates>-91.73919468072054,41.38923098766626,0.0 -91.73919491959646,41.389205400534664,0.0 -91.73918878802505,41.38920533334162,0.0 -91.7391885491467,41.38923092047319,0.0 -91.73919468072054,41.38923098766626,0.0</coordinates>
                    </LinearRing>
                </outerBoundaryIs>
            </Polygon>
        </Placemark>
        <Placemark id="feat_3832">
            <description>305</description>
            <Polygon id="geom_3818">
                <outerBoundaryIs>
                    <LinearRing id="geom_3819">
                        <coordinates>-91.73937800091065,41.389199325713186,0.0 -91.73937815795274,41.38917797057512,0.0 -91.73937228186551,41.3891779061912,0.0 -91.73937212482149,41.389199261329225,0.0 -91.73937800091065,41.389199325713186,0.0</coordinates>
                    </LinearRing>
                </outerBoundaryIs>
            </Polygon>
        </Placemark>
        <Placemark id="feat_3834">
            <description>8124</description>
            <Polygon id="geom_3820">
                <outerBoundaryIs>
                    <LinearRing id="geom_3821">
                        <coordinates>-91.73918369126709,41.38923105964183,0.0 -91.73918393014733,41.389205472510305,0.0 -91.73917805405806,41.38920540811644,0.0 -91.73917755597624,41.38923118481156,0.0 -91.73918369126709,41.38923105964183,0.0</coordinates>
                    </LinearRing>
                </outerBoundaryIs>
            </Polygon>
        </Placemark>
        <Placemark id="feat_3836">
            <description>314</description>
            <Polygon id="geom_3822">
                <outerBoundaryIs>
                    <LinearRing id="geom_3823">
                        <coordinates>-91.73940755318712,41.38923043417233,0.0 -91.73940780312861,41.38920426994886,0.0 -91.73940116059246,41.38920419716868,0.0 -91.73940091064833,41.3892303613921,0.0 -91.73940755318712,41.38923043417233,0.0</coordinates>
                    </LinearRing>
                </outerBoundaryIs>
            </Polygon>
        </Placemark>
        <Placemark id="feat_3838">
            <description>315</description>
            <Polygon id="geom_3824">
                <outerBoundaryIs>
                    <LinearRing id="geom_3825">
                        <coordinates>-91.73943776702994,41.38917439080015,0.0 -91.7394379574985,41.389151304390865,0.0 -91.73943182593158,41.38915123721087,0.0 -91.73943163546085,41.38917432362011,0.0 -91.73943776702994,41.38917439080015,0.0</coordinates>
                    </LinearRing>
                </outerBoundaryIs>
            </Polygon>
        </Placemark>
        <Placemark id="feat_3840">
            <description>318</description>
            <Polygon id="geom_3826">
                <outerBoundaryIs>
                    <LinearRing id="geom_3827">
                        <coordinates>-91.73939866894926,41.38920089899819,0.0 -91.73939885571559,41.38917800495269,0.0 -91.73939195770011,41.38917792937277,0.0 -91.7393915154492,41.38920082061896,0.0 -91.73939866894926,41.38920089899819,0.0</coordinates>
                    </LinearRing>
                </outerBoundaryIs>
            </Polygon>
        </Placemark>
        <Placemark id="feat_3842">
            <description>322</description>
            <Polygon id="geom_3828">
                <outerBoundaryIs>
                    <LinearRing id="geom_3829">
                        <coordinates>-91.7393884031668,41.38922964713811,0.0 -91.73938862338471,41.38920502182207,0.0 -91.73938249181285,41.38920495463937,0.0 -91.73938227159263,41.38922957995535,0.0 -91.7393884031668,41.38922964713811,0.0</coordinates>
                    </LinearRing>
                </outerBoundaryIs>
            </Polygon>
        </Placemark>
        <Placemark id="feat_3844">
            <description>8140</description>
            <Polygon id="geom_3830">
                <outerBoundaryIs>
                    <LinearRing id="geom_3831">
                        <coordinates>-91.73922211417792,41.38917337464935,0.0 -91.7392223270241,41.38914913406111,0.0 -91.73921645093982,41.389149069669266,0.0 -91.73921623809146,41.38917331025746,0.0 -91.73922211417792,41.38917337464935,0.0</coordinates>
                    </LinearRing>
                </outerBoundaryIs>
            </Polygon>
        </Placemark>
        <Placemark id="feat_3846">
            <description>8146</description>
            <Polygon id="geom_3832">
                <outerBoundaryIs>
                    <LinearRing id="geom_3833">
                        <coordinates>-91.73921368895853,41.389146538148836,0.0 -91.73921393525967,41.38912056628991,0.0 -91.73920703725074,41.38912049069899,0.0 -91.7392067872299,41.38914665492127,0.0 -91.73921368895853,41.389146538148836,0.0</coordinates>
                    </LinearRing>
                </outerBoundaryIs>
            </Polygon>
        </Placemark>
        <Placemark id="feat_3848">
            <description>333</description>
            <Polygon id="geom_3834">
                <outerBoundaryIs>
                    <LinearRing id="geom_3835">
                        <coordinates>-91.73941806889832,41.389175521806905,0.0 -91.73941854830261,41.38915070692623,0.0 -91.73941165028994,41.38915063134753,0.0 -91.7394111671667,41.38917563859157,0.0 -91.73941806889832,41.389175521806905,0.0</coordinates>
                    </LinearRing>
                </outerBoundaryIs>
            </Polygon>
        </Placemark>
        <Placemark id="feat_3850">
            <description>8157</description>
            <Polygon id="geom_3836">
                <outerBoundaryIs>
                    <LinearRing id="geom_3837">
                        <coordinates>-91.73917439876853,41.38911686215866,0.0 -91.73917458189554,41.389094160477704,0.0 -91.73916845033462,41.389094093283745,0.0 -91.73916826348842,41.38911698732804,0.0 -91.73917439876853,41.38911686215866,0.0</coordinates>
                    </LinearRing>
                </outerBoundaryIs>
            </Polygon>
        </Placemark>
        <Placemark id="feat_3852">
            <description>8159</description>
            <Polygon id="geom_3838">
                <outerBoundaryIs>
                    <LinearRing id="geom_3839">
                        <coordinates>-91.73919377449836,41.38911919093493,0.0 -91.7391939873544,41.389094950346646,0.0 -91.73918760031164,41.389094880354,0.0 -91.73918738745323,41.38911912094223,0.0 -91.73919377449836,41.38911919093493,0.0</coordinates>
                    </LinearRing>
                </outerBoundaryIs>
            </Polygon>
        </Placemark>
        <Placemark id="feat_3854">
            <description>347</description>
            <Polygon id="geom_3840">
                <outerBoundaryIs>
                    <LinearRing id="geom_3841">
                        <coordinates>-91.73942856784294,41.38914793064347,0.0 -91.73942854742792,41.38912253307396,0.0 -91.73942216038188,41.389122463094296,0.0 -91.73942192531248,41.38914785786458,0.0 -91.73942856784294,41.38914793064347,0.0</coordinates>
                    </LinearRing>
                </outerBoundaryIs>
            </Polygon>
        </Placemark>
        <Placemark id="feat_3856">
            <description>8162</description>
            <Polygon id="geom_3842">
                <outerBoundaryIs>
                    <LinearRing id="geom_3843">
                        <coordinates>-91.73916544947163,41.38911714889409,0.0 -91.73916561029948,41.3890956013936,0.0 -91.73915973422015,41.38909553699892,0.0 -91.73915957339037,41.389117084499375,0.0 -91.73916544947163,41.38911714889409,0.0</coordinates>
                    </LinearRing>
                </outerBoundaryIs>
            </Polygon>
        </Placemark>
        <Placemark id="feat_3858">
            <description>8163</description>
            <Polygon id="geom_3844">
                <outerBoundaryIs>
                    <LinearRing id="geom_3845">
                        <coordinates>-91.73918483263519,41.38911909294506,0.0 -91.73918503806055,41.38909523708365,0.0 -91.7391789064995,41.38909516989025,0.0 -91.7391784455901,41.389119022951874,0.0 -91.73918483263519,41.38911909294506,0.0</coordinates>
                    </LinearRing>
                </outerBoundaryIs>
            </Polygon>
        </Placemark>
        <Placemark id="feat_3860">
            <description>350</description>
            <Polygon id="geom_3846">
                <outerBoundaryIs>
                    <LinearRing id="geom_3847">
                        <coordinates>-91.73942801778226,41.38922931156518,0.0 -91.7394282119712,41.38920603279278,0.0 -91.739421824917,41.38920596281298,0.0 -91.73942163072579,41.38922924158534,0.0 -91.73942801778226,41.38922931156518,0.0</coordinates>
                    </LinearRing>
                </outerBoundaryIs>
            </Polygon>
        </Placemark>
        <Placemark id="feat_3862">
            <description>354</description>
            <Polygon id="geom_3848">
                <outerBoundaryIs>
                    <LinearRing id="geom_3849">
                        <coordinates>-91.73936852948925,41.3892001839559,0.0 -91.73936897918112,41.38917690798309,0.0 -91.73936259212991,41.38917683800004,0.0 -91.73936239791792,41.38920011677213,0.0 -91.73936852948925,41.3892001839559,0.0</coordinates>
                    </LinearRing>
                </outerBoundaryIs>
            </Polygon>
        </Placemark>
        <Placemark id="feat_3864">
            <description>379</description>
            <Polygon id="geom_3850">
                <outerBoundaryIs>
                    <LinearRing id="geom_3851">
                        <coordinates>-91.73939709327995,41.38922954994969,0.0 -91.73939731721096,41.38920473227019,0.0 -91.73939169660343,41.389204670686475,0.0 -91.73939147267029,41.389229488365935,0.0 -91.73939709327995,41.38922954994969,0.0</coordinates>
                    </LinearRing>
                </outerBoundaryIs>
            </Polygon>
        </Placemark>
    </Document>
</kml>
