<?xml version="1.0" encoding="UTF-8"?>
<kml xmlns="http://www.opengis.net/kml/2.2" xmlns:gx="http://www.google.com/kml/ext/2.2">
    <Document id="feat_4379">
        <Placemark id="feat_4380">
            <description>39</description>
            <Polygon id="geom_4360">
                <outerBoundaryIs>
                    <LinearRing id="geom_4361">
                        <coordinates>-91.73944765676488,41.389340194390385,0.0 -91.73944808960941,41.389317789137785,0.0 -91.73944127867436,41.38931790443007,0.0 -91.73944135373786,41.38934012533226,0.0 -91.73944765676488,41.389340194390385,0.0</coordinates>
                    </LinearRing>
                </outerBoundaryIs>
            </Polygon>
        </Placemark>
        <Placemark id="feat_4382">
            <description>46</description>
            <Polygon id="geom_4362">
                <outerBoundaryIs>
                    <LinearRing id="geom_4363">
                        <coordinates>-91.73935003621355,41.38936780198413,0.0 -91.7393504507497,41.38934634610754,0.0 -91.73934313923795,41.3893462659939,0.0 -91.7393427210309,41.38936791174545,0.0 -91.73935003621355,41.38936780198413,0.0</coordinates>
                    </LinearRing>
                </outerBoundaryIs>
            </Polygon>
        </Placemark>
        <Placemark id="feat_4384">
            <description>78</description>
            <Polygon id="geom_4364">
                <outerBoundaryIs>
                    <LinearRing id="geom_4365">
                        <coordinates>-91.73932957771297,41.38936947696723,0.0 -91.7393300179355,41.38934669196572,0.0 -91.73932321066594,41.38934661737596,0.0 -91.7393230225622,41.38936940514001,0.0 -91.73932957771297,41.38936947696723,0.0</coordinates>
                    </LinearRing>
                </outerBoundaryIs>
            </Polygon>
        </Placemark>
        <Placemark id="feat_4386">
            <description>90</description>
            <Polygon id="geom_4366">
                <outerBoundaryIs>
                    <LinearRing id="geom_4367">
                        <coordinates>-91.73935922329761,41.3892577518255,0.0 -91.7393591886141,41.38923344229813,0.0 -91.7393528855976,41.3892333732353,0.0 -91.739352668158,41.38925768000011,0.0 -91.73935922329761,41.3892577518255,0.0</coordinates>
                    </LinearRing>
                </outerBoundaryIs>
            </Polygon>
        </Placemark>
        <Placemark id="feat_4388">
            <description>113</description>
            <Polygon id="geom_4368">
                <outerBoundaryIs>
                    <LinearRing id="geom_4369">
                        <coordinates>-91.73939826701489,41.389286097160365,0.0 -91.73939851745263,41.38926008152014,0.0 -91.73939145440283,41.389260194047154,0.0 -91.7393912076306,41.389286019812296,0.0 -91.73939826701489,41.389286097160365,0.0</coordinates>
                    </LinearRing>
                </outerBoundaryIs>
            </Polygon>
        </Placemark>
        <Placemark id="feat_4390">
            <description>123</description>
            <Polygon id="geom_4370">
                <outerBoundaryIs>
                    <LinearRing id="geom_4371">
                        <coordinates>-91.73935819613789,41.38931091683029,0.0 -91.7393588481177,41.38929022321601,0.0 -91.73935254509571,41.38929015415308,0.0 -91.73935264947679,41.389310856054884,0.0 -91.73935819613789,41.38931091683029,0.0</coordinates>
                    </LinearRing>
                </outerBoundaryIs>
            </Polygon>
        </Placemark>
        <Placemark id="feat_4392">
            <description>172</description>
            <Polygon id="geom_4372">
                <outerBoundaryIs>
                    <LinearRing id="geom_4373">
                        <coordinates>-91.73936764968172,41.389395912512256,0.0 -91.73936785611225,41.389372175372955,0.0 -91.73936130096114,41.3893721035479,0.0 -91.7393608387385,41.38939602779966,0.0 -91.73936764968172,41.389395912512256,0.0</coordinates>
                    </LinearRing>
                </outerBoundaryIs>
            </Polygon>
        </Placemark>
        <Placemark id="feat_4394">
            <description>177</description>
            <Polygon id="geom_4374">
                <outerBoundaryIs>
                    <LinearRing id="geom_4375">
                        <coordinates>-91.73936875587101,41.389312551855475,0.0 -91.73936919974739,41.38928957697838,0.0 -91.73936264460457,41.389289505153506,0.0 -91.73936245284685,41.389312482793066,0.0 -91.73936875587101,41.389312551855475,0.0</coordinates>
                    </LinearRing>
                </outerBoundaryIs>
            </Polygon>
        </Placemark>
        <Placemark id="feat_4396">
            <description>189</description>
            <Polygon id="geom_4376">
                <outerBoundaryIs>
                    <LinearRing id="geom_4377">
                        <coordinates>-91.73944761811683,41.38936830141818,0.0 -91.73944781718156,41.38934494402826,0.0 -91.73944100991189,41.389344869445466,0.0 -91.73944081084471,41.38936822683536,0.0 -91.73944761811683,41.38936830141818,0.0</coordinates>
                    </LinearRing>
                </outerBoundaryIs>
            </Polygon>
        </Placemark>
        <Placemark id="feat_4398">
            <description>245</description>
            <Polygon id="geom_4378">
                <outerBoundaryIs>
                    <LinearRing id="geom_4379">
                        <coordinates>-91.73940903671358,41.38912022926239,0.0 -91.73940977671198,41.38909497864622,0.0 -91.7394032215886,41.389094906823956,0.0 -91.73940298582812,41.38912016296485,0.0 -91.73940903671358,41.38912022926239,0.0</coordinates>
                    </LinearRing>
                </outerBoundaryIs>
            </Polygon>
        </Placemark>
        <Placemark id="feat_4400">
            <description>253</description>
            <Polygon id="geom_4380">
                <outerBoundaryIs>
                    <LinearRing id="geom_4381">
                        <coordinates>-91.73929245001258,41.38922891271432,0.0 -91.73929265646842,41.38920517557485,0.0 -91.73928584921373,41.38920510098309,0.0 -91.73928589487606,41.389228840885174,0.0 -91.73929245001258,41.38922891271432,0.0</coordinates>
                    </LinearRing>
                </outerBoundaryIs>
            </Polygon>
        </Placemark>
        <Placemark id="feat_4402">
            <description>258</description>
            <Polygon id="geom_4382">
                <outerBoundaryIs>
                    <LinearRing id="geom_4383">
                        <coordinates>-91.73943829733295,41.38911979019589,0.0 -91.73943848539355,41.38909700243011,0.0 -91.73943167814974,41.389096927847135,0.0 -91.739431742207,41.389119718375206,0.0 -91.73943829733295,41.38911979019589,0.0</coordinates>
                    </LinearRing>
                </outerBoundaryIs>
            </Polygon>
        </Placemark>
        <Placemark id="feat_4404">
            <description>266</description>
            <Polygon id="geom_4384">
                <outerBoundaryIs>
                    <LinearRing id="geom_4385">
                        <coordinates>-91.73935899151974,41.38923059141034,0.0 -91.73935898985184,41.389204573007675,0.0 -91.73935243471756,41.38920450118235,0.0 -91.73935218059378,41.38923070669748,0.0 -91.73935899151974,41.38923059141034,0.0</coordinates>
                    </LinearRing>
                </outerBoundaryIs>
            </Polygon>
        </Placemark>
        <Placemark id="feat_4406">
            <description>288</description>
            <Polygon id="geom_4386">
                <outerBoundaryIs>
                    <LinearRing id="geom_4387">
                        <coordinates>-91.73929143988906,41.38920288326142,0.0 -91.73929191680843,41.389178199509416,0.0 -91.73928460531567,41.38917811939233,0.0 -91.73928412839354,41.38920280314426,0.0 -91.73929143988906,41.38920288326142,0.0</coordinates>
                    </LinearRing>
                </outerBoundaryIs>
            </Polygon>
        </Placemark>
        <Placemark id="feat_4408">
            <description>312</description>
            <Polygon id="geom_4388">
                <outerBoundaryIs>
                    <LinearRing id="geom_4389">
                        <coordinates>-91.73927281965618,41.38920078007346,0.0 -91.7392727703297,41.38917723004632,0.0 -91.7392667157706,41.38917735361657,0.0 -91.73926626085384,41.38920089811825,0.0 -91.73927281965618,41.38920078007346,0.0</coordinates>
                    </LinearRing>
                </outerBoundaryIs>
            </Polygon>
        </Placemark>
        <Placemark id="feat_4410">
            <description>342</description>
            <Polygon id="geom_4390">
                <outerBoundaryIs>
                    <LinearRing id="geom_4391">
                        <coordinates>-91.73928261730781,41.389228804970465,0.0 -91.73928283477312,41.389204498206034,0.0 -91.73927526748824,41.38920460520064,0.0 -91.73927480156813,41.38922871932731,0.0 -91.73928261730781,41.389228804970465,0.0</coordinates>
                    </LinearRing>
                </outerBoundaryIs>
            </Polygon>
        </Placemark>
        <Placemark id="feat_4412">
            <description>359</description>
            <Polygon id="geom_4392">
                <outerBoundaryIs>
                    <LinearRing id="geom_4393">
                        <coordinates>-91.73938987190806,41.389120209194125,0.0 -91.7393903818036,41.389093816565605,0.0 -91.7393838266804,41.38909374474223,0.0 -91.73938356890241,41.38912014013313,0.0 -91.73938987190806,41.389120209194125,0.0</coordinates>
                    </LinearRing>
                </outerBoundaryIs>
            </Polygon>
        </Placemark>
        <Placemark id="feat_4414">
            <description>365</description>
            <Polygon id="geom_4394">
                <outerBoundaryIs>
                    <LinearRing id="geom_4395">
                        <coordinates>-91.7393893400019,41.38914774107265,0.0 -91.73939009835007,41.38912154108173,0.0 -91.73938353955575,41.389121659133316,0.0 -91.73938354123426,41.38914767753649,0.0 -91.7393893400019,41.38914774107265,0.0</coordinates>
                    </LinearRing>
                </outerBoundaryIs>
            </Polygon>
        </Placemark>
    </Document>
</kml>
