<?xml version="1.0" encoding="UTF-8"?>
<kml xmlns="http://www.opengis.net/kml/2.2" xmlns:gx="http://www.google.com/kml/ext/2.2">
    <Document id="feat_4128">
        <Placemark id="feat_4129">
            <description>31</description>
            <Polygon id="geom_4112">
                <outerBoundaryIs>
                    <LinearRing id="geom_4113">
                        <coordinates>-91.73934987725163,41.38939608044689,0.0 -91.73935009493756,41.389372186805204,0.0 -91.73934350970043,41.389372114649476,0.0 -91.73934304811432,41.38939600561869,0.0 -91.73934987725163,41.38939608044689,0.0</coordinates>
                    </LinearRing>
                </outerBoundaryIs>
            </Polygon>
        </Placemark>
        <Placemark id="feat_4131">
            <description>32</description>
            <Polygon id="geom_4114">
                <outerBoundaryIs>
                    <LinearRing id="geom_4115">
                        <coordinates>-91.73944757773822,41.38931406627787,0.0 -91.73944804638545,41.389289807753954,0.0 -91.73944194540076,41.38928992472513,0.0 -91.7394417241991,41.3893140021445,0.0 -91.73944757773822,41.38931406627787,0.0</coordinates>
                    </LinearRing>
                </outerBoundaryIs>
            </Polygon>
        </Placemark>
        <Placemark id="feat_4133">
            <description>39</description>
            <Polygon id="geom_4116">
                <outerBoundaryIs>
                    <LinearRing id="geom_4117">
                        <coordinates>-91.73944756493225,41.389339984136356,0.0 -91.73944775417884,41.38931756070731,0.0 -91.7394411653966,41.389317672333945,0.0 -91.73944097969812,41.38933991198626,0.0 -91.73944756493225,41.389339984136356,0.0</coordinates>
                    </LinearRing>
                </outerBoundaryIs>
            </Polygon>
        </Placemark>
        <Placemark id="feat_4135">
            <description>40</description>
            <Polygon id="geom_4118">
                <outerBoundaryIs>
                    <LinearRing id="geom_4119">
                        <coordinates>-91.7393586682229,41.38939562532395,0.0 -91.73935888590563,41.38937173168218,0.0 -91.73935180932254,41.38937183795883,0.0 -91.73935159518787,41.38939554782384,0.0 -91.7393586682229,41.38939562532395,0.0</coordinates>
                    </LinearRing>
                </outerBoundaryIs>
            </Polygon>
        </Placemark>
        <Placemark id="feat_4137">
            <description>46</description>
            <Polygon id="geom_4120">
                <outerBoundaryIs>
                    <LinearRing id="geom_4121">
                        <coordinates>-91.73934993980595,41.38936758971561,0.0 -91.73935011133322,41.38934608517073,0.0 -91.739342794406,41.38934600499773,0.0 -91.73934261932565,41.38936769331925,0.0 -91.73934993980595,41.38936758971561,0.0</coordinates>
                    </LinearRing>
                </outerBoundaryIs>
            </Polygon>
        </Placemark>
        <Placemark id="feat_4139">
            <description>64</description>
            <Polygon id="geom_4122">
                <outerBoundaryIs>
                    <LinearRing id="geom_4123">
                        <coordinates>-91.7393396819018,41.38936821257997,0.0 -91.73933987473646,41.38934560537502,0.0 -91.73933304205377,41.389345714322964,0.0 -91.73933284921674,41.38936832152787,0.0 -91.7393396819018,41.38936821257997,0.0</coordinates>
                    </LinearRing>
                </outerBoundaryIs>
            </Polygon>
        </Placemark>
        <Placemark id="feat_4141">
            <description>77</description>
            <Polygon id="geom_4124">
                <outerBoundaryIs>
                    <LinearRing id="geom_4125">
                        <coordinates>-91.73936823213015,41.38936779014619,0.0 -91.73936844625844,41.389344080280935,0.0 -91.73936210492167,41.3893440107987,0.0 -91.73936189079107,41.38936772066391,0.0 -91.73936823213015,41.38936779014619,0.0</coordinates>
                    </LinearRing>
                </outerBoundaryIs>
            </Polygon>
        </Placemark>
        <Placemark id="feat_4143">
            <description>78</description>
            <Polygon id="geom_4126">
                <outerBoundaryIs>
                    <LinearRing id="geom_4127">
                        <coordinates>-91.73932941689607,41.38936920299676,0.0 -91.73932985718257,41.38934641468769,0.0 -91.73932278415293,41.38934633718588,0.0 -91.73932283165928,41.38936913083986,0.0 -91.73932941689607,41.38936920299676,0.0</coordinates>
                    </LinearRing>
                </outerBoundaryIs>
            </Polygon>
        </Placemark>
        <Placemark id="feat_4145">
            <description>89</description>
            <Polygon id="geom_4128">
                <outerBoundaryIs>
                    <LinearRing id="geom_4129">
                        <coordinates>-91.73943733404477,41.38931395404428,0.0 -91.73943756234881,41.38928950907153,0.0 -91.73943048932506,41.38928943157643,0.0 -91.73943026101836,41.38931387654914,0.0 -91.73943733404477,41.38931395404428,0.0</coordinates>
                    </LinearRing>
                </outerBoundaryIs>
            </Polygon>
        </Placemark>
        <Placemark id="feat_4147">
            <description>90</description>
            <Polygon id="geom_4130">
                <outerBoundaryIs>
                    <LinearRing id="geom_4131">
                        <coordinates>-91.73935889930782,41.38925739852964,0.0 -91.73935888019277,41.389233134661524,0.0 -91.7393525388668,41.389233065178914,0.0 -91.73935231408224,41.38925732637459,0.0 -91.73935889930782,41.38925739852964,0.0</coordinates>
                    </LinearRing>
                </outerBoundaryIs>
            </Polygon>
        </Placemark>
        <Placemark id="feat_4149">
            <description>92</description>
            <Polygon id="geom_4132">
                <outerBoundaryIs>
                    <LinearRing id="geom_4133">
                        <coordinates>-91.73935062455466,41.38925638878421,0.0 -91.73935082448548,41.3892334140254,0.0 -91.73934423926237,41.38923334186991,0.0 -91.73934403932923,41.38925631662868,0.0 -91.73935062455466,41.38925638878421,0.0</coordinates>
                    </LinearRing>
                </outerBoundaryIs>
            </Polygon>
        </Placemark>
        <Placemark id="feat_4151">
            <description>108</description>
            <Polygon id="geom_4134">
                <outerBoundaryIs>
                    <LinearRing id="geom_4135">
                        <coordinates>-91.73935822877561,41.38936786435452,0.0 -91.73935843580631,41.38934452204271,0.0 -91.73935185057195,41.3893444498875,0.0 -91.73935139964124,41.38936778952685,0.0 -91.73935822877561,41.38936786435452,0.0</coordinates>
                    </LinearRing>
                </outerBoundaryIs>
            </Polygon>
        </Placemark>
        <Placemark id="feat_4153">
            <description>113</description>
            <Polygon id="geom_4136">
                <outerBoundaryIs>
                    <LinearRing id="geom_4137">
                        <coordinates>-91.73939811488403,41.38928576818182,0.0 -91.73939812770908,41.38925985032336,0.0 -91.7393912950354,41.38925995927492,0.0 -91.73939104186078,41.3892856906843,0.0 -91.73939811488403,41.38928576818182,0.0</coordinates>
                    </LinearRing>
                </outerBoundaryIs>
            </Polygon>
        </Placemark>
        <Placemark id="feat_4155">
            <description>123</description>
            <Polygon id="geom_4138">
                <outerBoundaryIs>
                    <LinearRing id="geom_4139">
                        <coordinates>-91.7393581135291,41.389310696442294,0.0 -91.73935851474799,41.38928992967632,0.0 -91.73935241731387,41.38928986286604,0.0 -91.73935225999048,41.38931063230438,0.0 -91.7393581135291,41.389310696442294,0.0</coordinates>
                    </LinearRing>
                </outerBoundaryIs>
            </Polygon>
        </Placemark>
        <Placemark id="feat_4157">
            <description>127</description>
            <Polygon id="geom_4140">
                <outerBoundaryIs>
                    <LinearRing id="geom_4141">
                        <coordinates>-91.73935952501616,41.389338651878305,0.0 -91.73935994398802,41.38931696622898,0.0 -91.73935213216785,41.389317248265186,0.0 -91.7393519641922,41.389338569033484,0.0 -91.73935952501616,41.389338651878305,0.0</coordinates>
                    </LinearRing>
                </outerBoundaryIs>
            </Polygon>
        </Placemark>
        <Placemark id="feat_4159">
            <description>135</description>
            <Polygon id="geom_4142">
                <outerBoundaryIs>
                    <LinearRing id="geom_4143">
                        <coordinates>-91.73936829822672,41.389339115637945,0.0 -91.73936872429684,41.38931706243517,0.0 -91.7393623829627,41.38931699295299,0.0 -91.73936195689042,41.38933904615571,0.0 -91.73936829822672,41.389339115637945,0.0</coordinates>
                    </LinearRing>
                </outerBoundaryIs>
            </Polygon>
        </Placemark>
        <Placemark id="feat_4161">
            <description>137</description>
            <Polygon id="geom_4144">
                <outerBoundaryIs>
                    <LinearRing id="geom_4145">
                        <coordinates>-91.73938765570206,41.389284183057995,0.0 -91.73938788047381,41.3892599218622,0.0 -91.73938178304242,41.3892598550535,0.0 -91.7393815582684,41.38928411624927,0.0 -91.73938765570206,41.389284183057995,0.0</coordinates>
                    </LinearRing>
                </outerBoundaryIs>
            </Polygon>
        </Placemark>
        <Placemark id="feat_4163">
            <description>142</description>
            <Polygon id="geom_4146">
                <outerBoundaryIs>
                    <LinearRing id="geom_4147">
                        <coordinates>-91.73935935295825,41.38928442439283,0.0 -91.73935980033419,41.389261268529765,0.0 -91.7393527273137,41.38926119102993,0.0 -91.73935252028198,41.38928453334203,0.0 -91.73935935295825,41.38928442439283,0.0</coordinates>
                    </LinearRing>
                </outerBoundaryIs>
            </Polygon>
        </Placemark>
        <Placemark id="feat_4165">
            <description>170</description>
            <Polygon id="geom_4148">
                <outerBoundaryIs>
                    <LinearRing id="geom_4149">
                        <coordinates>-91.7394369807081,41.38939538048084,0.0 -91.73943714510621,41.389374243488916,0.0 -91.73942934038021,41.38937415797689,0.0 -91.73942917242917,41.38939547874545,0.0 -91.7394369807081,41.38939538048084,0.0</coordinates>
                    </LinearRing>
                </outerBoundaryIs>
            </Polygon>
        </Placemark>
        <Placemark id="feat_4167">
            <description>172</description>
            <Polygon id="geom_4150">
                <outerBoundaryIs>
                    <LinearRing id="geom_4151">
                        <coordinates>-91.73936720464455,41.38939571885799,0.0 -91.73936742232415,41.38937182521617,0.0 -91.739360837087,41.389371753061425,0.0 -91.73936061585438,41.3893958304799,0.0 -91.73936720464455,41.38939571885799,0.0</coordinates>
                    </LinearRing>
                </outerBoundaryIs>
            </Polygon>
        </Placemark>
        <Placemark id="feat_4169">
            <description>176</description>
            <Polygon id="geom_4152">
                <outerBoundaryIs>
                    <LinearRing id="geom_4153">
                        <coordinates>-91.7393403524654,41.38925774675564,0.0 -91.73934057015312,41.38923385311344,0.0 -91.7393332532385,41.38923377294001,0.0 -91.73933303199743,41.38925785035884,0.0 -91.7393403524654,41.38925774675564,0.0</coordinates>
                    </LinearRing>
                </outerBoundaryIs>
            </Polygon>
        </Placemark>
        <Placemark id="feat_4171">
            <description>177</description>
            <Polygon id="geom_4154">
                <outerBoundaryIs>
                    <LinearRing id="geom_4155">
                        <coordinates>-91.73936857271453,41.38931228156884,0.0 -91.73936877263968,41.38928930681011,0.0 -91.73936218741086,41.389289234655585,0.0 -91.73936198748339,41.389312209414264,0.0 -91.73936857271453,41.38931228156884,0.0</coordinates>
                    </LinearRing>
                </outerBoundaryIs>
            </Polygon>
        </Placemark>
        <Placemark id="feat_4173">
            <description>178</description>
            <Polygon id="geom_4156">
                <outerBoundaryIs>
                    <LinearRing id="geom_4157">
                        <coordinates>-91.73944673306845,41.389395671146886,0.0 -91.73944694006781,41.38937232883457,0.0 -91.73944010738235,41.38937243778885,0.0 -91.73943966003316,41.38939559365218,0.0 -91.73944673306845,41.389395671146886,0.0</coordinates>
                    </LinearRing>
                </outerBoundaryIs>
            </Polygon>
        </Placemark>
        <Placemark id="feat_4175">
            <description>189</description>
            <Polygon id="geom_4158">
                <outerBoundaryIs>
                    <LinearRing id="geom_4159">
                        <coordinates>-91.73944726562395,41.389368104642834,0.0 -91.73944747617317,41.389344578553725,0.0 -91.739440647041,41.38934450373137,0.0 -91.73944043648932,41.38936802982046,0.0 -91.73944726562395,41.389368104642834,0.0</coordinates>
                    </LinearRing>
                </outerBoundaryIs>
            </Polygon>
        </Placemark>
        <Placemark id="feat_4177">
            <description>228</description>
            <Polygon id="geom_4160">
                <outerBoundaryIs>
                    <LinearRing id="geom_4161">
                        <coordinates>-91.73930307035464,41.38923031734784,0.0 -91.73930329870791,41.38920587237573,0.0 -91.73929573434872,41.389205973304136,0.0 -91.73929550954338,41.38923023449949,0.0 -91.73930307035464,41.38923031734784,0.0</coordinates>
                    </LinearRing>
                </outerBoundaryIs>
            </Polygon>
        </Placemark>
        <Placemark id="feat_4179">
            <description>245</description>
            <Polygon id="geom_4162">
                <outerBoundaryIs>
                    <LinearRing id="geom_4163">
                        <coordinates>-91.73940888176703,41.389119900666536,0.0 -91.73940936817766,41.389094723258665,0.0 -91.73940278296837,41.38909465110673,0.0 -91.73940254045195,41.38911983118685,0.0 -91.73940888176703,41.389119900666536,0.0</coordinates>
                    </LinearRing>
                </outerBoundaryIs>
            </Polygon>
        </Placemark>
        <Placemark id="feat_4181">
            <description>248</description>
            <Polygon id="geom_4164">
                <outerBoundaryIs>
                    <LinearRing id="geom_4165">
                        <coordinates>-91.73928165223477,41.389202510315926,0.0 -91.73928215644992,41.38917641402622,0.0 -91.73927508343886,41.38917633652174,0.0 -91.73927457922086,41.38920243281137,0.0 -91.73928165223477,41.389202510315926,0.0</coordinates>
                    </LinearRing>
                </outerBoundaryIs>
            </Polygon>
        </Placemark>
        <Placemark id="feat_4183">
            <description>251</description>
            <Polygon id="geom_4166">
                <outerBoundaryIs>
                    <LinearRing id="geom_4167">
                        <coordinates>-91.7393701057372,41.38911929198931,0.0 -91.73937033761447,41.38909466323955,0.0 -91.73936424019857,41.38909459643014,0.0 -91.73936376442225,41.389119222507475,0.0 -91.7393701057372,41.38911929198931,0.0</coordinates>
                    </LinearRing>
                </outerBoundaryIs>
            </Polygon>
        </Placemark>
        <Placemark id="feat_4185">
            <description>253</description>
            <Polygon id="geom_4168">
                <outerBoundaryIs>
                    <LinearRing id="geom_4169">
                        <coordinates>-91.73929237083769,41.389228545766294,0.0 -91.73929258499182,41.38920483590102,0.0 -91.73928575587469,41.389204761069685,0.0 -91.73928554171808,41.389228470934924,0.0 -91.73929237083769,41.389228545766294,0.0</coordinates>
                    </LinearRing>
                </outerBoundaryIs>
            </Polygon>
        </Placemark>
        <Placemark id="feat_4187">
            <description>257</description>
            <Polygon id="geom_4170">
                <outerBoundaryIs>
                    <LinearRing id="geom_4171">
                        <coordinates>-91.73939835435822,41.38917235658242,0.0 -91.73939876976425,41.389150854708845,0.0 -91.73939169675563,41.38915077721157,0.0 -91.73939152524419,41.38917228175742,0.0 -91.73939835435822,41.38917235658242,0.0</coordinates>
                    </LinearRing>
                </outerBoundaryIs>
            </Polygon>
        </Placemark>
        <Placemark id="feat_4189">
            <description>258</description>
            <Polygon id="geom_4172">
                <outerBoundaryIs>
                    <LinearRing id="geom_4173">
                        <coordinates>-91.73943816357689,41.389119486230726,0.0 -91.73943811602825,41.389096692575244,0.0 -91.73943153081869,41.38909662042495,0.0 -91.73943133446829,41.38911941140816,0.0 -91.73943816357689,41.389119486230726,0.0</coordinates>
                    </LinearRing>
                </outerBoundaryIs>
            </Polygon>
        </Placemark>
        <Placemark id="feat_4191">
            <description>261</description>
            <Polygon id="geom_4174">
                <outerBoundaryIs>
                    <LinearRing id="geom_4175">
                        <coordinates>-91.73935962882963,41.389118625746775,0.0 -91.73935983230623,41.38909546721065,0.0 -91.73935446658018,41.3890954084179,0.0 -91.73935450344781,41.38911875340309,0.0 -91.73935962882963,41.389118625746775,0.0</coordinates>
                    </LinearRing>
                </outerBoundaryIs>
            </Polygon>
        </Placemark>
        <Placemark id="feat_4193">
            <description>266</description>
            <Polygon id="geom_4176">
                <outerBoundaryIs>
                    <LinearRing id="geom_4177">
                        <coordinates>-91.73935868955462,41.38923037533874,0.0 -91.73935894984243,41.389204276375985,0.0 -91.73935212072517,41.3892042015486,0.0 -91.73935185688401,41.38923048428799,0.0 -91.73935868955462,41.38923037533874,0.0</coordinates>
                    </LinearRing>
                </outerBoundaryIs>
            </Polygon>
        </Placemark>
        <Placemark id="feat_4195">
            <description>268</description>
            <Polygon id="geom_4178">
                <outerBoundaryIs>
                    <LinearRing id="geom_4179">
                        <coordinates>-91.73936881442543,41.38917350344216,0.0 -91.73936900724773,41.38915089623629,0.0 -91.7393624220329,41.38915082408196,0.0 -91.73936222920831,41.389173431287794,0.0 -91.73936881442543,41.38917350344216,0.0</coordinates>
                    </LinearRing>
                </outerBoundaryIs>
            </Polygon>
        </Placemark>
        <Placemark id="feat_4197">
            <description>276</description>
            <Polygon id="geom_4180">
                <outerBoundaryIs>
                    <LinearRing id="geom_4181">
                        <coordinates>-91.7393998540374,41.38911998556818,0.0 -91.7393998562087,41.38909461903909,0.0 -91.73939326744896,41.38909473066331,0.0 -91.73939278103212,41.389119908071024,0.0 -91.7393998540374,41.38911998556818,0.0</coordinates>
                    </LinearRing>
                </outerBoundaryIs>
            </Polygon>
        </Placemark>
        <Placemark id="feat_4199">
            <description>280</description>
            <Polygon id="geom_4182">
                <outerBoundaryIs>
                    <LinearRing id="geom_4183">
                        <coordinates>-91.73931208389654,41.38923096756077,0.0 -91.73931256324497,41.389206157707704,0.0 -91.73930475853943,41.38920607218751,0.0 -91.7393045230852,41.38923088471301,0.0 -91.73931208389654,41.38923096756077,0.0</coordinates>
                    </LinearRing>
                </outerBoundaryIs>
            </Polygon>
        </Placemark>
        <Placemark id="feat_4201">
            <description>285</description>
            <Polygon id="geom_4184">
                <outerBoundaryIs>
                    <LinearRing id="geom_4185">
                        <coordinates>-91.73926257987941,41.38923005747919,0.0 -91.7392628437565,41.38920377474052,0.0 -91.73925455125736,41.389203683871706,0.0 -91.73925404347978,41.3892299639377,0.0 -91.73926257987941,41.38923005747919,0.0</coordinates>
                    </LinearRing>
                </outerBoundaryIs>
            </Polygon>
        </Placemark>
        <Placemark id="feat_4203">
            <description>288</description>
            <Polygon id="geom_4186">
                <outerBoundaryIs>
                    <LinearRing id="geom_4187">
                        <coordinates>-91.73929140811606,41.38920261721805,0.0 -91.73929164002412,41.38917798846922,0.0 -91.73928456701285,41.38917791096531,0.0 -91.73928409120508,41.38920253704154,0.0 -91.73929140811606,41.38920261721805,0.0</coordinates>
                    </LinearRing>
                </outerBoundaryIs>
            </Polygon>
        </Placemark>
        <Placemark id="feat_4205">
            <description>292</description>
            <Polygon id="geom_4188">
                <outerBoundaryIs>
                    <LinearRing id="geom_4189">
                        <coordinates>-91.73942878250753,41.38920099757376,0.0 -91.73942898951096,41.3891776552608,0.0 -91.73942094091154,41.38917756707628,0.0 -91.73942073390523,41.38920090938919,0.0 -91.73942878250753,41.38920099757376,0.0</coordinates>
                    </LinearRing>
                </outerBoundaryIs>
            </Polygon>
        </Placemark>
        <Placemark id="feat_4207">
            <description>295</description>
            <Polygon id="geom_4190">
                <outerBoundaryIs>
                    <LinearRing id="geom_4191">
                        <coordinates>-91.73939883367284,41.38914754672829,0.0 -91.73939909394343,41.38912144776484,0.0 -91.73939250873147,41.38912137561228,0.0 -91.73939200456141,41.38914747190335,0.0 -91.73939883367284,41.38914754672829,0.0</coordinates>
                    </LinearRing>
                </outerBoundaryIs>
            </Polygon>
        </Placemark>
        <Placemark id="feat_4209">
            <description>296</description>
            <Polygon id="geom_4192">
                <outerBoundaryIs>
                    <LinearRing id="geom_4193">
                        <coordinates>-91.73940859447883,41.38917265259586,0.0 -91.7394087695351,41.38915096427321,0.0 -91.73940194042329,41.38915088944885,0.0 -91.73940200926168,41.389172580443784,0.0 -91.73940859447883,41.38917265259586,0.0</coordinates>
                    </LinearRing>
                </outerBoundaryIs>
            </Polygon>
        </Placemark>
        <Placemark id="feat_4211">
            <description>312</description>
            <Polygon id="geom_4194">
                <outerBoundaryIs>
                    <LinearRing id="geom_4195">
                        <coordinates>-91.73927241965599,41.38920057099128,0.0 -91.73927238636924,41.389177042230116,0.0 -91.73926628539502,41.3891771591921,0.0 -91.73926583088551,41.38920068260804,0.0 -91.73927241965599,41.38920057099128,0.0</coordinates>
                    </LinearRing>
                </outerBoundaryIs>
            </Polygon>
        </Placemark>
        <Placemark id="feat_4213">
            <description>8132</description>
            <Polygon id="geom_4196">
                <outerBoundaryIs>
                    <LinearRing id="geom_4197">
                        <coordinates>-91.73925216910136,41.389200716718506,0.0 -91.73925260231044,41.38917829596281,0.0 -91.73924674523303,41.38917841559638,0.0 -91.73924655946986,41.38920065524797,0.0 -91.73925216910136,41.389200716718506,0.0</coordinates>
                    </LinearRing>
                </outerBoundaryIs>
            </Polygon>
        </Placemark>
        <Placemark id="feat_4215">
            <description>320</description>
            <Polygon id="geom_4198">
                <outerBoundaryIs>
                    <LinearRing id="geom_4199">
                        <coordinates>-91.73934083812996,41.389118971301016,0.0 -91.73934105581577,41.389095077658254,0.0 -91.73933520229652,41.389095013519736,0.0 -91.73933474071185,41.38911890449002,0.0 -91.73934083812996,41.389118971301016,0.0</coordinates>
                    </LinearRing>
                </outerBoundaryIs>
            </Polygon>
        </Placemark>
        <Placemark id="feat_4217">
            <description>8136</description>
            <Polygon id="geom_4200">
                <outerBoundaryIs>
                    <LinearRing id="geom_4201">
                        <coordinates>-91.73921198515441,41.389171968773596,0.0 -91.73921218868405,41.38914881023868,0.0 -91.73920609126345,41.38914874342083,0.0 -91.73920588062961,41.38917226950906,0.0 -91.73921198515441,41.389171968773596,0.0</coordinates>
                    </LinearRing>
                </outerBoundaryIs>
            </Polygon>
        </Placemark>
        <Placemark id="feat_4219">
            <description>328</description>
            <Polygon id="geom_4202">
                <outerBoundaryIs>
                    <LinearRing id="geom_4203">
                        <coordinates>-91.73926337416096,41.3892015747655,0.0 -91.73926359187615,41.3891776811236,0.0 -91.73925554327725,41.38917759292751,0.0 -91.73925532555911,41.38920148656934,0.0 -91.73926337416096,41.3892015747655,0.0</coordinates>
                    </LinearRing>
                </outerBoundaryIs>
            </Polygon>
        </Placemark>
        <Placemark id="feat_4221">
            <description>335</description>
            <Polygon id="geom_4204">
                <outerBoundaryIs>
                    <LinearRing id="geom_4205">
                        <coordinates>-91.7393588621716,41.38919618752908,0.0 -91.73935894847985,41.38917909362417,0.0 -91.73935309495303,41.38917902948647,0.0 -91.73935300864323,41.38919612339135,0.0 -91.7393588621716,41.38919618752908,0.0</coordinates>
                    </LinearRing>
                </outerBoundaryIs>
            </Polygon>
        </Placemark>
        <Placemark id="feat_4223">
            <description>336</description>
            <Polygon id="geom_4206">
                <outerBoundaryIs>
                    <LinearRing id="geom_4207">
                        <coordinates>-91.73927139568465,41.389228315925784,0.0 -91.73927161339725,41.389204422283946,0.0 -91.73926429648613,41.389204342106176,0.0 -91.73926407877086,41.38922823574796,0.0 -91.73927139568465,41.389228315925784,0.0</coordinates>
                    </LinearRing>
                </outerBoundaryIs>
            </Polygon>
        </Placemark>
        <Placemark id="feat_4225">
            <description>339</description>
            <Polygon id="geom_4208">
                <outerBoundaryIs>
                    <LinearRing id="geom_4209">
                        <coordinates>-91.73944882187412,41.389148645871494,0.0 -91.73944908567506,41.389122363130966,0.0 -91.73944225301578,41.38912247208574,0.0 -91.7394417488656,41.3891485683773,0.0 -91.73944882187412,41.389148645871494,0.0</coordinates>
                    </LinearRing>
                </outerBoundaryIs>
            </Polygon>
        </Placemark>
        <Placemark id="feat_4227">
            <description>340</description>
            <Polygon id="geom_4210">
                <outerBoundaryIs>
                    <LinearRing id="geom_4211">
                        <coordinates>-91.73933208701287,41.389231002927374,0.0 -91.73933232245663,41.389206190401666,0.0 -91.73932598113333,41.38920612091763,0.0 -91.73932574213647,41.38923111721997,0.0 -91.73933208701287,41.389231002927374,0.0</coordinates>
                    </LinearRing>
                </outerBoundaryIs>
            </Polygon>
        </Placemark>
        <Placemark id="feat_4229">
            <description>342</description>
            <Polygon id="geom_4212">
                <outerBoundaryIs>
                    <LinearRing id="geom_4213">
                        <coordinates>-91.73928212360745,41.38922861729577,0.0 -91.73928235196855,41.38920417232381,0.0 -91.73927478760957,41.38920427325082,0.0 -91.73927456279647,41.389228534446055,0.0 -91.73928212360745,41.38922861729577,0.0</coordinates>
                    </LinearRing>
                </outerBoundaryIs>
            </Polygon>
        </Placemark>
        <Placemark id="feat_4231">
            <description>343</description>
            <Polygon id="geom_4214">
                <outerBoundaryIs>
                    <LinearRing id="geom_4215">
                        <coordinates>-91.73934990570687,41.38923046290864,0.0 -91.7393501162895,41.38920693681966,0.0 -91.73934328717199,41.389206861991745,0.0 -91.73934307658689,41.38923038808068,0.0 -91.73934990570687,41.38923046290864,0.0</coordinates>
                    </LinearRing>
                </outerBoundaryIs>
            </Polygon>
        </Placemark>
        <Placemark id="feat_4233">
            <description>346</description>
            <Polygon id="geom_4216">
                <outerBoundaryIs>
                    <LinearRing id="geom_4217">
                        <coordinates>-91.73940908089047,41.38914747518823,0.0 -91.73940931630385,41.3891226626616,0.0 -91.73940297498848,41.38912259318193,0.0 -91.73940273602223,41.38914758948522,0.0 -91.73940908089047,41.38914747518823,0.0</coordinates>
                    </LinearRing>
                </outerBoundaryIs>
            </Polygon>
        </Placemark>
        <Placemark id="feat_4235">
            <description>8161</description>
            <Polygon id="geom_4218">
                <outerBoundaryIs>
                    <LinearRing id="geom_4219">
                        <coordinates>-91.73924259036347,41.38911568894812,0.0 -91.73924250737404,41.389094733060396,0.0 -91.7392371416483,41.38909467426219,0.0 -91.7392367368426,41.389115624804575,0.0 -91.73924259036347,41.38911568894812,0.0</coordinates>
                    </LinearRing>
                </outerBoundaryIs>
            </Polygon>
        </Placemark>
        <Placemark id="feat_4237">
            <description>351</description>
            <Polygon id="geom_4220">
                <outerBoundaryIs>
                    <LinearRing id="geom_4221">
                        <coordinates>-91.73934061986223,41.38923128023976,0.0 -91.73934089080922,41.38920462994708,0.0 -91.73933381779491,41.38920455244617,0.0 -91.73933354684506,41.389231202738785,0.0 -91.73934061986223,41.38923128023976,0.0</coordinates>
                    </LinearRing>
                </outerBoundaryIs>
            </Polygon>
        </Placemark>
        <Placemark id="feat_4239">
            <description>356</description>
            <Polygon id="geom_4222">
                <outerBoundaryIs>
                    <LinearRing id="geom_4223">
                        <coordinates>-91.73932068996304,41.389202202812676,0.0 -91.739320667311,41.38917812272121,0.0 -91.73931383819658,41.3891780478916,0.0 -91.73931361694906,41.38920212531053,0.0 -91.73932068996304,41.389202202812676,0.0</coordinates>
                    </LinearRing>
                </outerBoundaryIs>
            </Polygon>
        </Placemark>
        <Placemark id="feat_4241">
            <description>359</description>
            <Polygon id="geom_4224">
                <outerBoundaryIs>
                    <LinearRing id="geom_4225">
                        <coordinates>-91.73938985427134,41.38911987600311,0.0 -91.73939011809563,41.38909359326289,0.0 -91.7393835328865,41.389093521109864,0.0 -91.73938326905956,41.389119803850015,0.0 -91.73938985427134,41.38911987600311,0.0</coordinates>
                    </LinearRing>
                </outerBoundaryIs>
            </Polygon>
        </Placemark>
        <Placemark id="feat_4243">
            <description>365</description>
            <Polygon id="geom_4226">
                <outerBoundaryIs>
                    <LinearRing id="geom_4227">
                        <coordinates>-91.73938932169621,41.38914744250772,0.0 -91.73938982586733,41.389121346216676,0.0 -91.73938348100164,41.389121460512634,0.0 -91.73938322427531,41.38914737569926,0.0 -91.73938932169621,41.38914744250772,0.0</coordinates>
                    </LinearRing>
                </outerBoundaryIs>
            </Polygon>
        </Placemark>
        <Placemark id="feat_4245">
            <description>368</description>
            <Polygon id="geom_4228">
                <outerBoundaryIs>
                    <LinearRing id="geom_4229">
                        <coordinates>-91.73944749296925,41.38923006162176,0.0 -91.73944771061738,41.38920616797868,0.0 -91.7394413692938,41.389206098501,0.0 -91.73944115164336,41.38922999214403,0.0 -91.73944749296925,41.38923006162176,0.0</coordinates>
                    </LinearRing>
                </outerBoundaryIs>
            </Polygon>
        </Placemark>
        <Placemark id="feat_4247">
            <description>370</description>
            <Polygon id="geom_4230">
                <outerBoundaryIs>
                    <LinearRing id="geom_4231">
                        <coordinates>-91.73935156248469,41.389119456440994,0.0 -91.73935178726776,41.38909519524474,0.0 -91.73934520205857,41.38909512308951,0.0 -91.73934497727305,41.389119384285706,0.0 -91.73935156248469,41.389119456440994,0.0</coordinates>
                    </LinearRing>
                </outerBoundaryIs>
            </Polygon>
        </Placemark>
        <Placemark id="feat_4249">
            <description>371</description>
            <Polygon id="geom_4232">
                <outerBoundaryIs>
                    <LinearRing id="geom_4233">
                        <coordinates>-91.73941840794139,41.389119269778625,0.0 -91.73941861494754,41.38909592746541,0.0 -91.7394120297381,41.389095855314,0.0 -91.73941157883287,41.38911919495488,0.0 -91.73941840794139,41.389119269778625,0.0</coordinates>
                    </LinearRing>
                </outerBoundaryIs>
            </Polygon>
        </Placemark>
        <Placemark id="feat_4251">
            <description>375</description>
            <Polygon id="geom_4234">
                <outerBoundaryIs>
                    <LinearRing id="geom_4235">
                        <coordinates>-91.73932281892147,41.38923090137359,0.0 -91.73932302241246,41.38920774283817,0.0 -91.73931643364129,41.38920785445783,0.0 -91.73931623369866,41.389230829216515,0.0 -91.73932281892147,41.38923090137359,0.0</coordinates>
                    </LinearRing>
                </outerBoundaryIs>
            </Polygon>
        </Placemark>
    </Document>
</kml>
