<?xml version="1.0" encoding="UTF-8"?>
<kml xmlns="http://www.opengis.net/kml/2.2" xmlns:gx="http://www.google.com/kml/ext/2.2">
    <Document id="feat_4416">
        <Placemark id="feat_4417">
            <description>32</description>
            <Polygon id="geom_4396">
                <outerBoundaryIs>
                    <LinearRing id="geom_4397">
                        <coordinates>-91.73944790351551,41.38931436862506,0.0 -91.73944812092034,41.3892900618598,0.0 -91.73944231847175,41.389290188201436,0.0 -91.73944185261195,41.3893143023293,0.0 -91.73944790351551,41.38931436862506,0.0</coordinates>
                    </LinearRing>
                </outerBoundaryIs>
            </Polygon>
        </Placemark>
        <Placemark id="feat_4419">
            <description>92</description>
            <Polygon id="geom_4398">
                <outerBoundaryIs>
                    <LinearRing id="geom_4399">
                        <coordinates>-91.73935092165497,41.38925671128737,0.0 -91.73935086129543,41.389233730885145,0.0 -91.73934430615827,41.389233659059336,0.0 -91.73934411439474,41.389256636698974,0.0 -91.73935092165497,41.38925671128737,0.0</coordinates>
                    </LinearRing>
                </outerBoundaryIs>
            </Polygon>
        </Placemark>
        <Placemark id="feat_4421">
            <description>108</description>
            <Polygon id="geom_4400">
                <outerBoundaryIs>
                    <LinearRing id="geom_4401">
                        <coordinates>-91.7393586046652,41.38936808578498,0.0 -91.7393588037618,41.38934472839565,0.0 -91.73935224861347,41.389344656570124,0.0 -91.73935179739334,41.389368011196886,0.0 -91.7393586046652,41.38936808578498,0.0</coordinates>
                    </LinearRing>
                </outerBoundaryIs>
            </Polygon>
        </Placemark>
        <Placemark id="feat_4423">
            <description>127</description>
            <Polygon id="geom_4402">
                <outerBoundaryIs>
                    <LinearRing id="geom_4403">
                        <coordinates>-91.73935967384647,41.38933885055771,0.0 -91.73936009204748,41.38931720480591,0.0 -91.73935252108106,41.38931750168043,0.0 -91.73935211021445,41.38933876768214,0.0 -91.73935967384647,41.38933885055771,0.0</coordinates>
                    </LinearRing>
                </outerBoundaryIs>
            </Polygon>
        </Placemark>
        <Placemark id="feat_4425">
            <description>137</description>
            <Polygon id="geom_4404">
                <outerBoundaryIs>
                    <LinearRing id="geom_4405">
                        <coordinates>-91.73938770728522,41.38928446213793,0.0 -91.73938817683286,41.38926015813543,0.0 -91.73938212593447,41.38926009183662,0.0 -91.73938165638458,41.38928439583906,0.0 -91.73938770728522,41.38928446213793,0.0</coordinates>
                    </LinearRing>
                </outerBoundaryIs>
            </Polygon>
        </Placemark>
        <Placemark id="feat_4427">
            <description>176</description>
            <Polygon id="geom_4406">
                <outerBoundaryIs>
                    <LinearRing id="geom_4407">
                        <coordinates>-91.7393408074772,41.389258119786035,0.0 -91.73934101758428,41.38923419277134,0.0 -91.7393337060851,41.38923411265727,0.0 -91.7393332438546,41.38925803690936,0.0 -91.7393408074772,41.389258119786035,0.0</coordinates>
                    </LinearRing>
                </outerBoundaryIs>
            </Polygon>
        </Placemark>
        <Placemark id="feat_4429">
            <description>178</description>
            <Polygon id="geom_4408">
                <outerBoundaryIs>
                    <LinearRing id="geom_4409">
                        <coordinates>-91.73944683044093,41.389396020408846,0.0 -91.73944702950627,41.38937266301903,0.0 -91.7394404706867,41.389372781073504,0.0 -91.73943977104462,41.389395943063576,0.0 -91.73944683044093,41.389396020408846,0.0</coordinates>
                    </LinearRing>
                </outerBoundaryIs>
            </Polygon>
        </Placemark>
        <Placemark id="feat_4431">
            <description>228</description>
            <Polygon id="geom_4410">
                <outerBoundaryIs>
                    <LinearRing id="geom_4411">
                        <coordinates>-91.73930351397199,41.3892305532706,0.0 -91.73930373142954,41.38920624650601,0.0 -91.73929616781305,41.38920616362697,0.0 -91.73929595035268,41.3892304703915,0.0 -91.73930351397199,41.3892305532706,0.0</coordinates>
                    </LinearRing>
                </outerBoundaryIs>
            </Polygon>
        </Placemark>
        <Placemark id="feat_4433">
            <description>248</description>
            <Polygon id="geom_4412">
                <outerBoundaryIs>
                    <LinearRing id="geom_4413">
                        <coordinates>-91.73928211142926,41.38920278104288,0.0 -91.73928236191216,41.38917676540319,0.0 -91.73927555466045,41.389176690810864,0.0 -91.73927505205431,41.38920270368781,0.0 -91.73928211142926,41.38920278104288,0.0</coordinates>
                    </LinearRing>
                </outerBoundaryIs>
            </Polygon>
        </Placemark>
        <Placemark id="feat_4435">
            <description>276</description>
            <Polygon id="geom_4414">
                <outerBoundaryIs>
                    <LinearRing id="geom_4415">
                        <coordinates>-91.73940020883734,41.3891203224534,0.0 -91.73940019614706,41.38909487367509,0.0 -91.7393936373554,41.3890949917273,0.0 -91.739393149471,41.389120245105694,0.0 -91.73940020883734,41.3891203224534,0.0</coordinates>
                    </LinearRing>
                </outerBoundaryIs>
            </Polygon>
        </Placemark>
        <Placemark id="feat_4437">
            <description>280</description>
            <Polygon id="geom_4416">
                <outerBoundaryIs>
                    <LinearRing id="geom_4417">
                        <coordinates>-91.73931232718887,41.38923121958729,0.0 -91.73931305988992,41.38920634872281,0.0 -91.73930524415285,41.38920626308177,0.0 -91.73930476356946,41.38923113670878,0.0 -91.73931232718887,41.38923121958729,0.0</coordinates>
                    </LinearRing>
                </outerBoundaryIs>
            </Polygon>
        </Placemark>
        <Placemark id="feat_4439">
            <description>285</description>
            <Polygon id="geom_4418">
                <outerBoundaryIs>
                    <LinearRing id="geom_4419">
                        <coordinates>-91.73926266675943,41.389230295592625,0.0 -91.73926292091917,41.38920409007821,0.0 -91.73925485306198,41.389204001671025,0.0 -91.73925409465774,41.389230201659906,0.0 -91.73926266675943,41.389230295592625,0.0</coordinates>
                    </LinearRing>
                </outerBoundaryIs>
            </Polygon>
        </Placemark>
        <Placemark id="feat_4441">
            <description>292</description>
            <Polygon id="geom_4420">
                <outerBoundaryIs>
                    <LinearRing id="geom_4421">
                        <coordinates>-91.73942915639823,41.38920135358722,0.0 -91.73942935546756,41.389177996196736,0.0 -91.73942128761308,41.38917790780127,0.0 -91.73942108854087,41.38920126519169,0.0 -91.73942915639823,41.38920135358722,0.0</coordinates>
                    </LinearRing>
                </outerBoundaryIs>
            </Polygon>
        </Placemark>
        <Placemark id="feat_4443">
            <description>295</description>
            <Polygon id="geom_4422">
                <outerBoundaryIs>
                    <LinearRing id="geom_4423">
                        <coordinates>-91.73939917269487,41.38914784880722,0.0 -91.73939917467841,41.38912164052893,0.0 -91.73939287167262,41.38912157146844,0.0 -91.7393923654459,41.38914777422183,0.0 -91.73939917269487,41.38914784880722,0.0</coordinates>
                    </LinearRing>
                </outerBoundaryIs>
            </Polygon>
        </Placemark>
        <Placemark id="feat_4445">
            <description>328</description>
            <Polygon id="geom_4424">
                <outerBoundaryIs>
                    <LinearRing id="geom_4425">
                        <coordinates>-91.73926372130511,41.3892018198662,0.0 -91.73926367931931,41.389177890089094,0.0 -91.73925561146537,41.38917780168201,0.0 -91.73925540132768,41.38920172869635,0.0 -91.73926372130511,41.3892018198662,0.0</coordinates>
                    </LinearRing>
                </outerBoundaryIs>
            </Polygon>
        </Placemark>
        <Placemark id="feat_4447">
            <description>336</description>
            <Polygon id="geom_4426">
                <outerBoundaryIs>
                    <LinearRing id="geom_4427">
                        <coordinates>-91.73927177612053,41.38922868617499,0.0 -91.73927198625255,41.389204759160656,0.0 -91.73926442263632,41.389204676279526,0.0 -91.73926446462217,41.38922860605652,0.0 -91.73927177612053,41.38922868617499,0.0</coordinates>
                    </LinearRing>
                </outerBoundaryIs>
            </Polygon>
        </Placemark>
        <Placemark id="feat_4449">
            <description>339</description>
            <Polygon id="geom_4428">
                <outerBoundaryIs>
                    <LinearRing id="geom_4429">
                        <coordinates>-91.73944882939685,41.389148962617114,0.0 -91.73944933926907,41.38912256998815,0.0 -91.73944227623417,41.389122682518476,0.0 -91.73944177002726,41.38914888527237,0.0 -91.73944882939685,41.389148962617114,0.0</coordinates>
                    </LinearRing>
                </outerBoundaryIs>
            </Polygon>
        </Placemark>
        <Placemark id="feat_4451">
            <description>340</description>
            <Polygon id="geom_4430">
                <outerBoundaryIs>
                    <LinearRing id="geom_4431">
                        <coordinates>-91.73933250050926,41.389231250719206,0.0 -91.73933272529302,41.38920656420437,0.0 -91.73932642227918,41.38920649514014,0.0 -91.73932619382452,41.389231371529924,0.0 -91.73933250050926,41.389231250719206,0.0</coordinates>
                    </LinearRing>
                </outerBoundaryIs>
            </Polygon>
        </Placemark>
        <Placemark id="feat_4453">
            <description>343</description>
            <Polygon id="geom_4432">
                <outerBoundaryIs>
                    <LinearRing id="geom_4433">
                        <coordinates>-91.73935016362859,41.38923068459729,0.0 -91.73935011427444,41.38920713456993,0.0 -91.7393433070194,41.38920705998155,0.0 -91.73934335637108,41.389230610008894,0.0 -91.73935016362859,41.38923068459729,0.0</coordinates>
                    </LinearRing>
                </outerBoundaryIs>
            </Polygon>
        </Placemark>
        <Placemark id="feat_4455">
            <description>351</description>
            <Polygon id="geom_4434">
                <outerBoundaryIs>
                    <LinearRing id="geom_4435">
                        <coordinates>-91.73934106894289,41.38923153452108,0.0 -91.73934107828754,41.38920494649347,0.0 -91.73933427103275,41.389204871904575,0.0 -91.73933400956467,41.38923145716959,0.0 -91.73934106894289,41.38923153452108,0.0</coordinates>
                    </LinearRing>
                </outerBoundaryIs>
            </Polygon>
        </Placemark>
        <Placemark id="feat_4457">
            <description>375</description>
            <Polygon id="geom_4436">
                <outerBoundaryIs>
                    <LinearRing id="geom_4437">
                        <coordinates>-91.73932291992462,41.389231145741356,0.0 -91.73932311536382,41.38920797822673,0.0 -91.73931680868134,41.38920809903697,0.0 -91.73931661690843,41.389231076676545,0.0 -91.73932291992462,41.389231145741356,0.0</coordinates>
                    </LinearRing>
                </outerBoundaryIs>
            </Polygon>
        </Placemark>
    </Document>
</kml>
